{
  "tests": [
    {
      "targets": ["unit_tests"],
      "profiles": ["DebugASan"]
    },
    {
      "targets": ["stress_tests"],
      "profiles": [
        "FaultyFibers",
        "Debug",
        "FaultyThreadsASan",
        "FaultyThreadsTSan"
      ]
    },
    {
      "targets": ["confuse_tests"],
      "profiles": ["Debug"]
    }
  ],	  
  "lint_files": ["future"],
  "submit_files": ["future"],
  "forbidden": [
    {
      "patterns": [
        "std::future",
        "yield",
        "sleep_for",
        "SpinWait"
      ]
    }
  ]
}
